{
    "banners":[
        "https://gitlab.com/piyushkpv/wallrio_wall_data/-/raw/main/Pastel/Thumbnails/Pastel%20Landscapes%203-small.jpg",
        "https://gitlab.com/piyushkpv/wallrio_wall_data/-/raw/main/Pastel/Thumbnails/Pastel%20Landscapes%202-small.jpg",
        "https://gitlab.com/piyushkpv/wallrio_wall_data/-/raw/main/Pastel/Thumbnails/Pastel%20Landscapes%201-small.jpg",
        "https://gitlab.com/piyushkpv/wallrio_wall_data/-/raw/main/Cyber/Thumbnails/Little%20Robo%204-small.jpg",
        "https://gitlab.com/piyushkpv/wallrio_wall_data/-/raw/main/Chibi%20Magic/Thumbnails/Deadpool%202-small.jpg",
        "https://gitlab.com/piyushkpv/wallrio_wall_data/-/raw/main/Vibrant%20Nature/Thumbnails/Starry%20Sky%204-small.jpg",
        "https://gitlab.com/piyushkpv/wallrio_wall_data/-/raw/main/Vibrant%20Nature/Thumbnails/Starry%20Sky%203-small.jpg",
        "https://gitlab.com/piyushkpv/wallrio_wall_data/-/raw/main/Artistic/Thumbnails/Moai%20Statue%204-small.jpg",
        "https://gitlab.com/piyushkpv/wallrio_wall_data/-/raw/main/Artistic/Thumbnails/Moai%20Statue%203-small.jpg",
        "https://gitlab.com/piyushkpv/wallrio_wall_data/-/raw/main/Vehicles/Thumbnails/Wind%20Rider%204-small.jpg",
        "https://gitlab.com/piyushkpv/wallrio_wall_data/-/raw/main/Pastel/Thumbnails/Giggly%20Gang%204-small.jpg",
        "https://gitlab.com/piyushkpv/wallrio_wall_data/-/raw/main/Abbs-tract/Thumbnails/Marbel%204-small.jpg",
        "https://gitlab.com/piyushkpv/wallrio_wall_data/-/raw/main/Pastel/Thumbnails/Pastel%20Landscapes%203-small.jpg",
        "https://gitlab.com/piyushkpv/wallrio_wall_data/-/raw/main/Pastel/Thumbnails/Pastel%20Landscapes%202-small.jpg",
        "https://gitlab.com/piyushkpv/wallrio_wall_data/-/raw/main/Pastel/Thumbnails/Pastel%20Landscapes%201-small.jpg",
        "https://gitlab.com/piyushkpv/wallrio_wall_data/-/raw/main/Cyber/Thumbnails/Little%20Robo%204-small.jpg",
        "https://gitlab.com/piyushkpv/wallrio_wall_data/-/raw/main/Chibi%20Magic/Thumbnails/Deadpool%202-small.jpg",
        "https://gitlab.com/piyushkpv/wallrio_wall_data/-/raw/main/Vibrant%20Nature/Thumbnails/Starry%20Sky%204-small.jpg",
        "https://gitlab.com/piyushkpv/wallrio_wall_data/-/raw/main/Vibrant%20Nature/Thumbnails/Starry%20Sky%203-small.jpg",
        "https://gitlab.com/piyushkpv/wallrio_wall_data/-/raw/main/Artistic/Thumbnails/Moai%20Statue%204-small.jpg",
        "https://gitlab.com/piyushkpv/wallrio_wall_data/-/raw/main/Artistic/Thumbnails/Moai%20Statue%203-small.jpg",
        "https://gitlab.com/piyushkpv/wallrio_wall_data/-/raw/main/Vehicles/Thumbnails/Wind%20Rider%204-small.jpg",
        "https://gitlab.com/piyushkpv/wallrio_wall_data/-/raw/main/Pastel/Thumbnails/Giggly%20Gang%204-small.jpg",
        "https://gitlab.com/piyushkpv/wallrio_wall_data/-/raw/main/Abbs-tract/Thumbnails/Marbel%204-small.jpg",
        "https://gitlab.com/piyushkpv/wallrio_wall_data/-/raw/main/Pastel/Thumbnails/Pastel%20Landscapes%203-small.jpg",
        "https://gitlab.com/piyushkpv/wallrio_wall_data/-/raw/main/Pastel/Thumbnails/Pastel%20Landscapes%202-small.jpg",
        "https://gitlab.com/piyushkpv/wallrio_wall_data/-/raw/main/Pastel/Thumbnails/Pastel%20Landscapes%201-small.jpg",
        "https://gitlab.com/piyushkpv/wallrio_wall_data/-/raw/main/Cyber/Thumbnails/Little%20Robo%204-small.jpg",
        "https://gitlab.com/piyushkpv/wallrio_wall_data/-/raw/main/Chibi%20Magic/Thumbnails/Deadpool%202-small.jpg",
        "https://gitlab.com/piyushkpv/wallrio_wall_data/-/raw/main/Vibrant%20Nature/Thumbnails/Starry%20Sky%204-small.jpg",
        "https://gitlab.com/piyushkpv/wallrio_wall_data/-/raw/main/Vibrant%20Nature/Thumbnails/Starry%20Sky%203-small.jpg",
        "https://gitlab.com/piyushkpv/wallrio_wall_data/-/raw/main/Artistic/Thumbnails/Moai%20Statue%204-small.jpg",
        "https://gitlab.com/piyushkpv/wallrio_wall_data/-/raw/main/Artistic/Thumbnails/Moai%20Statue%203-small.jpg",
        "https://gitlab.com/piyushkpv/wallrio_wall_data/-/raw/main/Vehicles/Thumbnails/Wind%20Rider%204-small.jpg",
        "https://gitlab.com/piyushkpv/wallrio_wall_data/-/raw/main/Pastel/Thumbnails/Giggly%20Gang%204-small.jpg",
        "https://gitlab.com/piyushkpv/wallrio_wall_data/-/raw/main/Abbs-tract/Thumbnails/Marbel%204-small.jpg"
    ]
}